<?xml version="1.0" encoding="utf-8"?>
<!DOCTYPE eagle SYSTEM "eagle.dtd">
<eagle version="8.3.2">
<drawing>
<settings>
<setting alwaysvectorfont="no"/>
<setting keepoldvectorfont="yes"/>
<setting verticaltext="up"/>
</settings>
<grid distance="0.1" unitdist="inch" unit="inch" style="lines" multiple="1" display="yes" altdistance="0.01" altunitdist="inch" altunit="inch"/>
<layers>
<layer number="1" name="Top" color="4" fill="1" visible="no" active="no"/>
<layer number="2" name="Route2" color="1" fill="3" visible="no" active="no"/>
<layer number="3" name="Route3" color="4" fill="3" visible="no" active="no"/>
<layer number="4" name="Route4" color="1" fill="4" visible="no" active="no"/>
<layer number="5" name="Route5" color="4" fill="4" visible="no" active="no"/>
<layer number="6" name="Route6" color="1" fill="8" visible="no" active="no"/>
<layer number="7" name="Route7" color="4" fill="8" visible="no" active="no"/>
<layer number="8" name="Route8" color="1" fill="2" visible="no" active="no"/>
<layer number="9" name="Route9" color="4" fill="2" visible="no" active="no"/>
<layer number="10" name="Route10" color="1" fill="7" visible="no" active="no"/>
<layer number="11" name="Route11" color="4" fill="7" visible="no" active="no"/>
<layer number="12" name="Route12" color="1" fill="5" visible="no" active="no"/>
<layer number="13" name="Route13" color="4" fill="5" visible="no" active="no"/>
<layer number="14" name="Route14" color="1" fill="6" visible="no" active="no"/>
<layer number="15" name="Route15" color="4" fill="6" visible="no" active="no"/>
<layer number="16" name="Bottom" color="1" fill="1" visible="no" active="no"/>
<layer number="17" name="Pads" color="2" fill="1" visible="no" active="no"/>
<layer number="18" name="Vias" color="2" fill="1" visible="no" active="no"/>
<layer number="19" name="Unrouted" color="6" fill="1" visible="no" active="no"/>
<layer number="20" name="Dimension" color="15" fill="1" visible="no" active="no"/>
<layer number="21" name="tPlace" color="7" fill="1" visible="no" active="no"/>
<layer number="22" name="bPlace" color="7" fill="1" visible="no" active="no"/>
<layer number="23" name="tOrigins" color="15" fill="1" visible="no" active="no"/>
<layer number="24" name="bOrigins" color="15" fill="1" visible="no" active="no"/>
<layer number="25" name="tNames" color="7" fill="1" visible="no" active="no"/>
<layer number="26" name="bNames" color="7" fill="1" visible="no" active="no"/>
<layer number="27" name="tValues" color="7" fill="1" visible="no" active="no"/>
<layer number="28" name="bValues" color="7" fill="1" visible="no" active="no"/>
<layer number="29" name="tStop" color="7" fill="3" visible="no" active="no"/>
<layer number="30" name="bStop" color="7" fill="6" visible="no" active="no"/>
<layer number="31" name="tCream" color="7" fill="4" visible="no" active="no"/>
<layer number="32" name="bCream" color="7" fill="5" visible="no" active="no"/>
<layer number="33" name="tFinish" color="6" fill="3" visible="no" active="no"/>
<layer number="34" name="bFinish" color="6" fill="6" visible="no" active="no"/>
<layer number="35" name="tGlue" color="7" fill="4" visible="no" active="no"/>
<layer number="36" name="bGlue" color="7" fill="5" visible="no" active="no"/>
<layer number="37" name="tTest" color="7" fill="1" visible="no" active="no"/>
<layer number="38" name="bTest" color="7" fill="1" visible="no" active="no"/>
<layer number="39" name="tKeepout" color="4" fill="11" visible="no" active="no"/>
<layer number="40" name="bKeepout" color="1" fill="11" visible="no" active="no"/>
<layer number="41" name="tRestrict" color="4" fill="10" visible="no" active="no"/>
<layer number="42" name="bRestrict" color="1" fill="10" visible="no" active="no"/>
<layer number="43" name="vRestrict" color="2" fill="10" visible="no" active="no"/>
<layer number="44" name="Drills" color="7" fill="1" visible="no" active="no"/>
<layer number="45" name="Holes" color="7" fill="1" visible="no" active="no"/>
<layer number="46" name="Milling" color="3" fill="1" visible="no" active="no"/>
<layer number="47" name="Measures" color="7" fill="1" visible="no" active="no"/>
<layer number="48" name="Document" color="7" fill="1" visible="no" active="no"/>
<layer number="49" name="Reference" color="7" fill="1" visible="no" active="no"/>
<layer number="50" name="dxf" color="7" fill="1" visible="no" active="no"/>
<layer number="51" name="tDocu" color="7" fill="1" visible="no" active="no"/>
<layer number="52" name="bDocu" color="7" fill="1" visible="no" active="no"/>
<layer number="53" name="tGND_GNDA" color="7" fill="9" visible="no" active="no"/>
<layer number="54" name="bGND_GNDA" color="1" fill="9" visible="no" active="no"/>
<layer number="56" name="wert" color="7" fill="1" visible="no" active="no"/>
<layer number="57" name="tCAD" color="7" fill="1" visible="no" active="no"/>
<layer number="91" name="Nets" color="2" fill="1" visible="yes" active="yes"/>
<layer number="92" name="Busses" color="1" fill="1" visible="yes" active="yes"/>
<layer number="93" name="Pins" color="2" fill="1" visible="no" active="yes"/>
<layer number="94" name="Symbols" color="4" fill="1" visible="yes" active="yes"/>
<layer number="95" name="Names" color="7" fill="1" visible="yes" active="yes"/>
<layer number="96" name="Values" color="7" fill="1" visible="yes" active="yes"/>
<layer number="97" name="Info" color="7" fill="1" visible="yes" active="yes"/>
<layer number="98" name="Guide" color="6" fill="1" visible="yes" active="yes"/>
<layer number="99" name="SpiceOrder" color="7" fill="1" visible="yes" active="yes"/>
<layer number="100" name="Muster" color="7" fill="1" visible="no" active="no"/>
<layer number="101" name="Patch_Top" color="12" fill="4" visible="yes" active="yes"/>
<layer number="102" name="Vscore" color="7" fill="1" visible="yes" active="yes"/>
<layer number="103" name="tMap" color="7" fill="1" visible="yes" active="yes"/>
<layer number="104" name="Name" color="7" fill="1" visible="yes" active="yes"/>
<layer number="105" name="tPlate" color="7" fill="1" visible="yes" active="yes"/>
<layer number="106" name="bPlate" color="7" fill="1" visible="yes" active="yes"/>
<layer number="107" name="Crop" color="7" fill="1" visible="yes" active="yes"/>
<layer number="108" name="tplace-old" color="10" fill="1" visible="yes" active="yes"/>
<layer number="109" name="ref-old" color="11" fill="1" visible="yes" active="yes"/>
<layer number="110" name="fp0" color="7" fill="1" visible="yes" active="yes"/>
<layer number="111" name="LPC17xx" color="7" fill="1" visible="yes" active="yes"/>
<layer number="112" name="tSilk" color="7" fill="1" visible="yes" active="yes"/>
<layer number="113" name="IDFDebug" color="4" fill="1" visible="yes" active="yes"/>
<layer number="116" name="Patch_BOT" color="9" fill="4" visible="yes" active="yes"/>
<layer number="121" name="_tsilk" color="7" fill="1" visible="yes" active="yes"/>
<layer number="122" name="_bsilk" color="7" fill="1" visible="yes" active="yes"/>
<layer number="123" name="tTestmark" color="7" fill="1" visible="yes" active="yes"/>
<layer number="124" name="bTestmark" color="7" fill="1" visible="yes" active="yes"/>
<layer number="125" name="_tNames" color="7" fill="1" visible="yes" active="yes"/>
<layer number="126" name="_bNames" color="7" fill="1" visible="yes" active="yes"/>
<layer number="127" name="_tValues" color="7" fill="1" visible="yes" active="yes"/>
<layer number="128" name="_bValues" color="7" fill="1" visible="yes" active="yes"/>
<layer number="131" name="tAdjust" color="7" fill="1" visible="yes" active="yes"/>
<layer number="132" name="bAdjust" color="7" fill="1" visible="yes" active="yes"/>
<layer number="144" name="Drill_legend" color="7" fill="1" visible="yes" active="yes"/>
<layer number="150" name="Notes" color="7" fill="1" visible="yes" active="yes"/>
<layer number="151" name="HeatSink" color="7" fill="1" visible="yes" active="yes"/>
<layer number="152" name="_bDocu" color="7" fill="1" visible="yes" active="yes"/>
<layer number="153" name="FabDoc1" color="6" fill="1" visible="no" active="no"/>
<layer number="154" name="FabDoc2" color="2" fill="1" visible="no" active="no"/>
<layer number="155" name="FabDoc3" color="7" fill="15" visible="no" active="no"/>
<layer number="199" name="Contour" color="7" fill="1" visible="yes" active="yes"/>
<layer number="200" name="200bmp" color="1" fill="10" visible="yes" active="yes"/>
<layer number="201" name="201bmp" color="2" fill="10" visible="yes" active="yes"/>
<layer number="202" name="202bmp" color="3" fill="10" visible="yes" active="yes"/>
<layer number="203" name="203bmp" color="4" fill="10" visible="yes" active="yes"/>
<layer number="204" name="204bmp" color="5" fill="10" visible="yes" active="yes"/>
<layer number="205" name="205bmp" color="6" fill="10" visible="yes" active="yes"/>
<layer number="206" name="206bmp" color="7" fill="10" visible="yes" active="yes"/>
<layer number="207" name="207bmp" color="8" fill="10" visible="yes" active="yes"/>
<layer number="208" name="208bmp" color="9" fill="10" visible="yes" active="yes"/>
<layer number="209" name="209bmp" color="7" fill="1" visible="yes" active="yes"/>
<layer number="210" name="210bmp" color="7" fill="1" visible="yes" active="yes"/>
<layer number="211" name="211bmp" color="7" fill="1" visible="yes" active="yes"/>
<layer number="212" name="212bmp" color="7" fill="1" visible="yes" active="yes"/>
<layer number="213" name="213bmp" color="7" fill="1" visible="yes" active="yes"/>
<layer number="214" name="214bmp" color="7" fill="1" visible="yes" active="yes"/>
<layer number="215" name="215bmp" color="7" fill="1" visible="yes" active="yes"/>
<layer number="216" name="216bmp" color="7" fill="1" visible="yes" active="yes"/>
<layer number="217" name="217bmp" color="18" fill="1" visible="no" active="no"/>
<layer number="218" name="218bmp" color="19" fill="1" visible="no" active="no"/>
<layer number="219" name="219bmp" color="20" fill="1" visible="no" active="no"/>
<layer number="220" name="220bmp" color="21" fill="1" visible="no" active="no"/>
<layer number="221" name="221bmp" color="22" fill="1" visible="no" active="no"/>
<layer number="222" name="222bmp" color="23" fill="1" visible="no" active="no"/>
<layer number="223" name="223bmp" color="24" fill="1" visible="no" active="no"/>
<layer number="224" name="224bmp" color="25" fill="1" visible="no" active="no"/>
<layer number="248" name="Housing" color="7" fill="1" visible="yes" active="yes"/>
<layer number="249" name="Edge" color="7" fill="1" visible="yes" active="yes"/>
<layer number="250" name="Descript" color="3" fill="1" visible="no" active="no"/>
<layer number="251" name="SMDround" color="12" fill="11" visible="no" active="no"/>
<layer number="254" name="cooling" color="7" fill="1" visible="yes" active="yes"/>
</layers>
<schematic xreflabel="%F%N/%S.%C%R" xrefpart="/%S.%C%R">
<libraries>
<library name="fabPatil">
<packages>
<package name="1206">
<description>&lt;b&gt;RESISTOR&lt;/b&gt;&lt;p&gt;
chip</description>
<wire x1="0.9525" y1="-0.8128" x2="-0.9652" y2="-0.8128" width="0.1524" layer="51"/>
<wire x1="0.9525" y1="0.8128" x2="-0.9652" y2="0.8128" width="0.1524" layer="51"/>
<wire x1="-2.3206" y1="0.983" x2="2.3206" y2="0.983" width="0.0508" layer="39"/>
<wire x1="2.3206" y1="0.983" x2="2.3206" y2="-0.983" width="0.0508" layer="39"/>
<wire x1="2.3206" y1="-0.983" x2="-2.3206" y2="-0.983" width="0.0508" layer="39"/>
<wire x1="-2.3206" y1="-0.983" x2="-2.3206" y2="0.983" width="0.0508" layer="39"/>
<smd name="2" x="1.422" y="0" dx="1.6" dy="1.803" layer="1"/>
<smd name="1" x="-1.422" y="0" dx="1.6" dy="1.803" layer="1"/>
<text x="-1.397" y="1.143" size="1.27" layer="25">&gt;NAME</text>
<text x="-1.397" y="-1.143" size="1.27" layer="27">&gt;VALUE</text>
<rectangle x1="-1.6891" y1="-0.8763" x2="-0.9525" y2="0.8763" layer="51"/>
<rectangle x1="0.9525" y1="-0.8763" x2="1.6891" y2="0.8763" layer="51"/>
<rectangle x1="-0.3" y1="-0.7" x2="0.3" y2="0.7" layer="35"/>
</package>
<package name="0402">
<description>&lt;b&gt;RESISTOR&lt;/b&gt;</description>
<wire x1="-0.245" y1="0.224" x2="0.245" y2="0.224" width="0.1524" layer="51"/>
<wire x1="0.245" y1="-0.224" x2="-0.245" y2="-0.224" width="0.1524" layer="51"/>
<wire x1="-1.092" y1="0.5338" x2="1.092" y2="0.5338" width="0.0508" layer="39"/>
<wire x1="1.092" y1="0.5338" x2="1.092" y2="-0.5338" width="0.0508" layer="39"/>
<wire x1="1.092" y1="-0.5338" x2="-1.092" y2="-0.5338" width="0.0508" layer="39"/>
<wire x1="-1.092" y1="-0.5338" x2="-1.092" y2="0.5338" width="0.0508" layer="39"/>
<smd name="1" x="-0.65" y="0" dx="0.7" dy="0.9" layer="1"/>
<smd name="2" x="0.65" y="0" dx="0.7" dy="0.9" layer="1"/>
<text x="-0.635" y="0.635" size="1.27" layer="25">&gt;NAME</text>
<text x="-0.635" y="-1.905" size="1.27" layer="27">&gt;VALUE</text>
<rectangle x1="-0.554" y1="-0.3048" x2="-0.254" y2="0.2951" layer="51"/>
<rectangle x1="0.2588" y1="-0.3048" x2="0.5588" y2="0.2951" layer="51"/>
<rectangle x1="-0.1999" y1="-0.4001" x2="0.1999" y2="0.4001" layer="35"/>
</package>
<package name="1X06-SMD">
<wire x1="7.62" y1="-0.02" x2="-7.62" y2="-0.02" width="0.127" layer="51"/>
<wire x1="-7.62" y1="-0.02" x2="-7.62" y2="-7.6" width="0.127" layer="51"/>
<wire x1="-7.62" y1="-7.6" x2="7.62" y2="-7.6" width="0.127" layer="51"/>
<wire x1="7.62" y1="-7.6" x2="7.62" y2="-0.02" width="0.127" layer="51"/>
<smd name="4" x="1.27" y="-1.35" dx="3" dy="1" layer="1" rot="R90"/>
<smd name="5" x="3.81" y="-1.35" dx="3" dy="1" layer="1" rot="R90"/>
<smd name="6" x="6.35" y="-1.35" dx="3" dy="1" layer="1" rot="R90"/>
<smd name="3" x="-1.27" y="-1.35" dx="3" dy="1" layer="1" rot="R90"/>
<smd name="2" x="-3.81" y="-1.35" dx="3" dy="1" layer="1" rot="R90"/>
<smd name="1" x="-6.35" y="-1.35" dx="3" dy="1" layer="1" rot="R90"/>
</package>
<package name="RESONATOR-SMD">
<wire x1="-1.6" y1="1.92" x2="1.6" y2="1.92" width="0.127" layer="51"/>
<wire x1="1.6" y1="1.92" x2="1.6" y2="-1.92" width="0.127" layer="51"/>
<wire x1="1.6" y1="-1.92" x2="-1.6" y2="-1.92" width="0.127" layer="51"/>
<wire x1="-1.6" y1="-1.92" x2="-1.6" y2="1.92" width="0.127" layer="51"/>
<smd name="1" x="-1.5" y="0" dx="0.7" dy="4.1" layer="1"/>
<smd name="2" x="0" y="0" dx="1" dy="4.1" layer="1"/>
<smd name="3" x="1.5" y="0" dx="0.7" dy="4.1" layer="1"/>
<text x="-1.639" y="2.27" size="0.4064" layer="25">&gt;Name</text>
<text x="0.361" y="-2.774" size="0.4064" layer="27">&gt;Value</text>
</package>
<package name="RESONATOR-PTH">
<wire x1="-2.286" y1="1.778" x2="-2.286" y2="-1.778" width="0.2032" layer="21" curve="162.403081"/>
<wire x1="2.286" y1="-1.778" x2="2.286" y2="1.778" width="0.2032" layer="21" curve="162.403081"/>
<wire x1="-2.286" y1="-1.778" x2="2.286" y2="-1.778" width="0.2032" layer="21" curve="12.71932"/>
<wire x1="2.286" y1="1.778" x2="-2.286" y2="1.778" width="0.2032" layer="21" curve="12.758496"/>
<pad name="2" x="0" y="0" drill="0.8" diameter="1.8796"/>
<pad name="1" x="-2.54" y="0" drill="0.8" diameter="1.8796"/>
<pad name="3" x="2.54" y="0" drill="0.8" diameter="1.8796"/>
</package>
<package name="USB-B-SMT">
<description>USB Series B Surface Mounted</description>
<wire x1="-1" y1="-6" x2="2.4" y2="-6" width="0.2032" layer="51"/>
<wire x1="2.4" y1="6" x2="-1" y2="6" width="0.2032" layer="51"/>
<wire x1="2.4" y1="6" x2="2.4" y2="7.3" width="0.2032" layer="51"/>
<wire x1="2.4" y1="7.3" x2="2.2" y2="7.5" width="0.2032" layer="51"/>
<wire x1="2.2" y1="7.5" x2="1.9" y2="7.5" width="0.2032" layer="51"/>
<wire x1="1.9" y1="7.5" x2="1.4" y2="7" width="0.2032" layer="51"/>
<wire x1="-1" y1="6" x2="-1" y2="7.3" width="0.2032" layer="51"/>
<wire x1="-0.8" y1="7.5" x2="-0.5" y2="7.5" width="0.2032" layer="51"/>
<wire x1="-0.5" y1="7.5" x2="0" y2="7" width="0.2032" layer="51"/>
<wire x1="0" y1="7" x2="1.4" y2="7" width="0.2032" layer="51"/>
<wire x1="-1" y1="-6" x2="-1" y2="-7.3" width="0.2032" layer="51"/>
<wire x1="-1" y1="-7.3" x2="-0.8" y2="-7.5" width="0.2032" layer="51"/>
<wire x1="-0.8" y1="-7.5" x2="-0.5" y2="-7.5" width="0.2032" layer="51"/>
<wire x1="-0.5" y1="-7.5" x2="0" y2="-7" width="0.2032" layer="51"/>
<wire x1="1.9" y1="-7.5" x2="1.4" y2="-7" width="0.2032" layer="51"/>
<wire x1="1.4" y1="-7" x2="0" y2="-7" width="0.2032" layer="51"/>
<wire x1="-1" y1="7.3" x2="-0.8" y2="7.5" width="0.2032" layer="51"/>
<wire x1="2.2" y1="-7.5" x2="1.9" y2="-7.5" width="0.2032" layer="51"/>
<wire x1="2.2" y1="-7.5" x2="2.4" y2="-7.3" width="0.2032" layer="51"/>
<wire x1="2.4" y1="-6" x2="2.4" y2="-7.3" width="0.2032" layer="51"/>
<wire x1="-5" y1="6" x2="-5" y2="-6" width="0.2032" layer="51"/>
<wire x1="-5" y1="6" x2="-9" y2="6" width="0.2032" layer="51"/>
<wire x1="-9" y1="6" x2="-9" y2="-6" width="0.2032" layer="51"/>
<wire x1="-9" y1="-6" x2="-5" y2="-6" width="0.2032" layer="51"/>
<wire x1="-5" y1="6" x2="-3" y2="6" width="0.2032" layer="21"/>
<wire x1="-5" y1="-6" x2="-3" y2="-6" width="0.2032" layer="21"/>
<wire x1="4" y1="-6" x2="7" y2="-6" width="0.2032" layer="21"/>
<wire x1="7" y1="-6" x2="7" y2="-3" width="0.2032" layer="21"/>
<wire x1="7" y1="3" x2="7" y2="6" width="0.2032" layer="21"/>
<wire x1="7" y1="6" x2="4" y2="6" width="0.2032" layer="21"/>
<smd name="5" x="0.58" y="6.8" dx="6.04" dy="3.4" layer="1"/>
<smd name="6" x="0.58" y="-6.8" dx="6.04" dy="3.4" layer="1"/>
<smd name="D+" x="7" y="1.875" dx="3" dy="0.7" layer="1"/>
<smd name="D-" x="7" y="0.625" dx="3" dy="0.7" layer="1"/>
<smd name="GND" x="7" y="-0.625" dx="3" dy="0.7" layer="1"/>
<smd name="VUSB" x="7" y="-1.875" dx="3" dy="0.7" layer="1"/>
<text x="4.3" y="-7.795" size="1.27" layer="25">&gt;NAME</text>
<hole x="0" y="2.25" drill="1.4"/>
<hole x="0" y="-2.25" drill="1.4"/>
</package>
<package name="USB-MINIB-OLD">
<description>&lt;b&gt;USB Series Mini-B Surface Mounted&lt;/b&gt;</description>
<wire x1="-1.5" y1="3.8" x2="0.9" y2="3.8" width="0.127" layer="21"/>
<wire x1="3.3" y1="3.1" x2="3.3" y2="2.1" width="0.127" layer="21"/>
<wire x1="3.3" y1="-2.1" x2="3.3" y2="-3.1" width="0.127" layer="21"/>
<wire x1="1" y1="-3.8" x2="-1.5" y2="-3.8" width="0.127" layer="21"/>
<wire x1="-5.9" y1="3.8" x2="-5.9" y2="-3.8" width="0.127" layer="51"/>
<wire x1="-5.9" y1="-3.8" x2="-4.5" y2="-3.8" width="0.127" layer="51"/>
<wire x1="-5.9" y1="3.8" x2="-4.5" y2="3.8" width="0.127" layer="51"/>
<smd name="1" x="-3" y="-4.5" dx="2.5" dy="2" layer="1"/>
<smd name="2" x="-3" y="4.5" dx="2.5" dy="2" layer="1"/>
<smd name="3" x="3" y="-4.5" dx="3.5" dy="2" layer="1"/>
<smd name="4" x="3" y="4.5" dx="3.5" dy="2" layer="1"/>
<smd name="D+" x="3" y="0" dx="3.5" dy="0.5" layer="1"/>
<smd name="D-" x="3" y="0.8" dx="3.5" dy="0.5" layer="1"/>
<smd name="VBUS" x="3.01" y="1.61" dx="3.5" dy="0.5" layer="1"/>
<smd name="ID" x="3" y="-0.8" dx="3.5" dy="0.5" layer="1"/>
<smd name="GND" x="3" y="-1.6" dx="3.5" dy="0.5" layer="1"/>
<text x="-3.81" y="-1.27" size="0.4064" layer="27">&gt;VALUE</text>
<text x="-3.81" y="0" size="0.4064" layer="25">&gt;NAME</text>
<hole x="0" y="2.2" drill="0.9"/>
<hole x="0" y="-2.2" drill="0.9"/>
</package>
<package name="S4B-PH">
<wire x1="-6" y1="2" x2="-6" y2="-7" width="0.3048" layer="51"/>
<wire x1="-6" y1="-7" x2="6" y2="-7" width="0.3048" layer="51"/>
<wire x1="6" y1="-7" x2="6" y2="2" width="0.3048" layer="51"/>
<wire x1="6" y1="2" x2="-6" y2="2" width="0.3048" layer="51"/>
<smd name="1" x="-3" y="-4.7" dx="1" dy="4.6" layer="1"/>
<smd name="2" x="-1" y="-4.7" dx="1" dy="4.6" layer="1"/>
<smd name="3" x="1" y="-4.7" dx="1" dy="4.6" layer="1"/>
<smd name="4" x="3" y="-4.7" dx="1" dy="4.6" layer="1"/>
<smd name="P$1" x="-5.4" y="0.5" dx="3.4" dy="1.6" layer="1" rot="R90"/>
<smd name="P$2" x="5.4" y="0.5" dx="3.4" dy="1.6" layer="1" rot="R90"/>
</package>
<package name="USB-MINIB">
<description>&lt;b&gt;USB Series Mini-B Surface Mounted&lt;/b&gt;</description>
<wire x1="-1.3" y1="3.8" x2="0.8" y2="3.8" width="0.2032" layer="21"/>
<wire x1="3.3" y1="3.1" x2="3.3" y2="2.2" width="0.2032" layer="21"/>
<wire x1="3.3" y1="-2.2" x2="3.3" y2="-3.1" width="0.2032" layer="21"/>
<wire x1="0.8" y1="-3.8" x2="-1.3" y2="-3.8" width="0.2032" layer="21"/>
<wire x1="-5.9" y1="3.8" x2="-5.9" y2="-3.8" width="0.2032" layer="51"/>
<wire x1="-5.9" y1="-3.8" x2="-4.5" y2="-3.8" width="0.2032" layer="51"/>
<wire x1="-5.9" y1="3.8" x2="-4.5" y2="3.8" width="0.2032" layer="51"/>
<smd name="D+" x="2.5" y="0" dx="2.5" dy="0.5" layer="1"/>
<smd name="D-" x="2.5" y="0.8" dx="2.5" dy="0.5" layer="1"/>
<smd name="GND" x="2.5" y="-1.6" dx="2.5" dy="0.5" layer="1"/>
<smd name="ID" x="2.5" y="-0.8" dx="2.5" dy="0.5" layer="1"/>
<smd name="MTN3" x="-3" y="-4.5" dx="2.5" dy="2" layer="1"/>
<smd name="MTN1" x="-3" y="4.5" dx="2.5" dy="2" layer="1"/>
<smd name="MTN4" x="2.5" y="-4.5" dx="2.5" dy="2" layer="1"/>
<smd name="MTN2" x="2.5" y="4.5" dx="2.5" dy="2" layer="1"/>
<smd name="VBUS" x="2.5" y="1.6" dx="2.5" dy="0.5" layer="1"/>
<text x="-3.81" y="1.27" size="0.4064" layer="25">&gt;NAME</text>
<text x="-3.81" y="0" size="0.4064" layer="27">&gt;VALUE</text>
<hole x="0" y="2.2" drill="0.9"/>
<hole x="0" y="-2.2" drill="0.9"/>
</package>
<package name="USB_PCB">
<description>Card-edge USB A connector.

For boards designed to be plugged directly into a USB slot. If possible, ensure that your PCB is about 2.4mm thick to fit snugly.</description>
<wire x1="-4" y1="6" x2="7.7" y2="6" width="0.127" layer="51"/>
<wire x1="7.7" y1="6" x2="7.7" y2="-6" width="0.127" layer="51" style="shortdash"/>
<wire x1="7.7" y1="-6" x2="-4" y2="-6" width="0.127" layer="51"/>
<wire x1="-4" y1="-6" x2="-4" y2="6" width="0.127" layer="51"/>
<smd name="5V" x="1.55" y="-3.5" dx="11" dy="1.5" layer="1"/>
<smd name="D-" x="2.05" y="-1" dx="10" dy="1" layer="1"/>
<smd name="D+" x="2.05" y="1" dx="10" dy="1" layer="1"/>
<smd name="GND" x="1.55" y="3.5" dx="11" dy="1.5" layer="1"/>
<text x="-1.27" y="5.08" size="0.4064" layer="25">&gt;Name</text>
<text x="-1.27" y="-5.08" size="0.4064" layer="27">&gt;Value</text>
</package>
<package name="USB-MINIB-NOSTOP">
<wire x1="-1.3" y1="3.8" x2="0.8" y2="3.8" width="0.2032" layer="21"/>
<wire x1="3.3" y1="3.1" x2="3.3" y2="2.2" width="0.2032" layer="21"/>
<wire x1="3.3" y1="-2.2" x2="3.3" y2="-3.1" width="0.2032" layer="21"/>
<wire x1="0.8" y1="-3.8" x2="-1.3" y2="-3.8" width="0.2032" layer="21"/>
<wire x1="-5.9" y1="3.8" x2="-5.9" y2="-3.8" width="0.2032" layer="51"/>
<wire x1="-5.9" y1="-3.8" x2="-4.5" y2="-3.8" width="0.2032" layer="51"/>
<wire x1="-5.9" y1="3.8" x2="-4.5" y2="3.8" width="0.2032" layer="51"/>
<circle x="0" y="2.2" radius="0.35" width="0.41" layer="29"/>
<circle x="0" y="-2.2" radius="0.35" width="0.41" layer="29"/>
<pad name="H1" x="0" y="2.2" drill="0.9" diameter="0.8" stop="no"/>
<pad name="H2" x="0" y="-2.2" drill="0.9" diameter="0.7874" stop="no"/>
<smd name="D+" x="2.5" y="0" dx="2.5" dy="0.5" layer="1"/>
<smd name="D-" x="2.5" y="0.8" dx="2.5" dy="0.5" layer="1"/>
<smd name="GND" x="2.5" y="-1.6" dx="2.5" dy="0.5" layer="1"/>
<smd name="ID" x="2.5" y="-0.8" dx="2.5" dy="0.5" layer="1"/>
<smd name="G1" x="-3" y="-4.5" dx="2.5" dy="2" layer="1"/>
<smd name="G2" x="-3" y="4.5" dx="2.5" dy="2" layer="1"/>
<smd name="G4" x="2.5" y="-4.5" dx="2.5" dy="2" layer="1"/>
<smd name="G3" x="2.5" y="4.5" dx="2.5" dy="2" layer="1"/>
<smd name="VBUS" x="2.5" y="1.6" dx="2.5" dy="0.5" layer="1"/>
<text x="-3.81" y="1.27" size="0.4064" layer="25">&gt;NAME</text>
<text x="-3.81" y="0" size="0.4064" layer="27">&gt;VALUE</text>
</package>
<package name="USB-MICROB">
<description>Micro USB Package</description>
<wire x1="-3.4" y1="-2.15" x2="-3" y2="-2.15" width="0.127" layer="51"/>
<wire x1="3" y1="-2.15" x2="3.4" y2="-2.15" width="0.127" layer="51"/>
<wire x1="-3.4" y1="-2.15" x2="-3.4" y2="-1.45" width="0.127" layer="51"/>
<wire x1="-3.4" y1="-1.45" x2="-3.4" y2="2.85" width="0.127" layer="51"/>
<wire x1="3.4" y1="2.85" x2="2.2" y2="2.85" width="0.127" layer="51"/>
<wire x1="3.4" y1="2.85" x2="3.4" y2="-1.45" width="0.127" layer="51"/>
<wire x1="3.4" y1="-1.45" x2="3.4" y2="-2.15" width="0.127" layer="51"/>
<wire x1="-3.4" y1="-1.45" x2="3.4" y2="-1.45" width="0.127" layer="51"/>
<wire x1="-3.4" y1="1.25" x2="-3.4" y2="2.85" width="0.2032" layer="21"/>
<wire x1="-3.4" y1="2.85" x2="-2.2" y2="2.85" width="0.2032" layer="21"/>
<wire x1="3.4" y1="2.85" x2="2.2" y2="2.85" width="0.2032" layer="21"/>
<wire x1="3.4" y1="1.25" x2="3.4" y2="2.85" width="0.2032" layer="21"/>
<wire x1="-3.4" y1="-1.45" x2="3.4" y2="-1.45" width="0.2032" layer="21"/>
<wire x1="-2.2" y1="1.45" x2="2.2" y2="1.45" width="0.127" layer="51"/>
<wire x1="2.2" y1="1.45" x2="2.2" y2="2.85" width="0.127" layer="51"/>
<wire x1="-2.2" y1="1.45" x2="-2.2" y2="2.85" width="0.127" layer="51"/>
<wire x1="-3.4" y1="2.85" x2="-2.2" y2="2.85" width="0.127" layer="51"/>
<wire x1="-2.2" y1="2.85" x2="-2.2" y2="1.45" width="0.2032" layer="21"/>
<wire x1="-2.2" y1="1.45" x2="2.2" y2="1.45" width="0.2032" layer="21"/>
<wire x1="2.2" y1="1.45" x2="2.2" y2="2.85" width="0.2032" layer="21"/>
<wire x1="-3.4" y1="-2.15" x2="-4" y2="-2.75" width="0.2032" layer="51"/>
<wire x1="3.4" y1="-2.15" x2="4" y2="-2.75" width="0.2032" layer="51"/>
<wire x1="-3" y1="-2.15" x2="-3" y2="-2.55" width="0.127" layer="51"/>
<wire x1="-2.8" y1="-2.8" x2="2.75" y2="-2.8" width="0.127" layer="51"/>
<wire x1="3" y1="-2.6" x2="3" y2="-2.15" width="0.127" layer="51"/>
<wire x1="-3" y1="-2.55" x2="-2.8" y2="-2.8" width="0.127" layer="51" curve="84.547378"/>
<wire x1="2.75" y1="-2.8" x2="3" y2="-2.6" width="0.127" layer="51" curve="84.547378"/>
<smd name="VBUS" x="-1.3" y="2.65" dx="1.397" dy="0.2032" layer="1" rot="R90"/>
<smd name="GND" x="1.3" y="2.65" dx="1.397" dy="0.2032" layer="1" rot="R90"/>
<smd name="D-" x="-0.65" y="2.65" dx="1.397" dy="0.2032" layer="1" rot="R90"/>
<smd name="D+" x="0" y="2.65" dx="1.397" dy="0.2032" layer="1" rot="R90"/>
<smd name="ID" x="0.65" y="2.65" dx="1.397" dy="0.2032" layer="1" rot="R90"/>
<smd name="MT1" x="-4" y="0" dx="1.8" dy="1.9" layer="1"/>
<smd name="MT2" x="4" y="0" dx="1.8" dy="1.9" layer="1"/>
<text x="-1.6" y="-4.16" size="0.762" layer="25">&gt;NAME</text>
<smd name="P$1" x="-1.27" y="0" dx="1.9" dy="1.9" layer="1"/>
<smd name="P$2" x="1.27" y="0" dx="1.9" dy="1.9" layer="1"/>
</package>
</packages>
<symbols>
<symbol name="RESISTOR">
<wire x1="-2.54" y1="0" x2="-2.159" y2="1.016" width="0.2032" layer="94"/>
<wire x1="-2.159" y1="1.016" x2="-1.524" y2="-1.016" width="0.2032" layer="94"/>
<wire x1="-1.524" y1="-1.016" x2="-0.889" y2="1.016" width="0.2032" layer="94"/>
<wire x1="-0.889" y1="1.016" x2="-0.254" y2="-1.016" width="0.2032" layer="94"/>
<wire x1="-0.254" y1="-1.016" x2="0.381" y2="1.016" width="0.2032" layer="94"/>
<wire x1="0.381" y1="1.016" x2="1.016" y2="-1.016" width="0.2032" layer="94"/>
<wire x1="1.016" y1="-1.016" x2="1.651" y2="1.016" width="0.2032" layer="94"/>
<wire x1="1.651" y1="1.016" x2="2.286" y2="-1.016" width="0.2032" layer="94"/>
<wire x1="2.286" y1="-1.016" x2="2.54" y2="0" width="0.2032" layer="94"/>
<text x="-3.81" y="1.4986" size="1.778" layer="95">&gt;NAME</text>
<text x="-3.81" y="-3.302" size="1.778" layer="96">&gt;VALUE</text>
<pin name="2" x="5.08" y="0" visible="off" length="short" direction="pas" swaplevel="1" rot="R180"/>
<pin name="1" x="-5.08" y="0" visible="off" length="short" direction="pas" swaplevel="1"/>
</symbol>
<symbol name="ARDUINO_SERIAL_PROGRAM">
<wire x1="1.27" y1="-7.62" x2="-7.62" y2="-7.62" width="0.4064" layer="94"/>
<wire x1="-1.27" y1="0" x2="0" y2="0" width="0.6096" layer="94"/>
<wire x1="-1.27" y1="-2.54" x2="0" y2="-2.54" width="0.6096" layer="94"/>
<wire x1="-1.27" y1="-5.08" x2="0" y2="-5.08" width="0.6096" layer="94"/>
<wire x1="-7.62" y1="10.16" x2="-7.62" y2="-7.62" width="0.4064" layer="94"/>
<wire x1="1.27" y1="-7.62" x2="1.27" y2="10.16" width="0.4064" layer="94"/>
<wire x1="-7.62" y1="10.16" x2="1.27" y2="10.16" width="0.4064" layer="94"/>
<wire x1="-1.27" y1="5.08" x2="0" y2="5.08" width="0.6096" layer="94"/>
<wire x1="-1.27" y1="2.54" x2="0" y2="2.54" width="0.6096" layer="94"/>
<wire x1="-1.27" y1="7.62" x2="0" y2="7.62" width="0.6096" layer="94"/>
<text x="-5.08" y="-10.16" size="1.778" layer="96">&gt;VALUE</text>
<text x="-5.08" y="10.922" size="1.778" layer="95">&gt;NAME</text>
<pin name="DTR" x="5.08" y="-5.08" visible="pin" length="middle" direction="pas" swaplevel="1" rot="R180"/>
<pin name="RXI" x="5.08" y="-2.54" visible="pin" length="middle" direction="pas" swaplevel="1" rot="R180"/>
<pin name="TXO" x="5.08" y="0" visible="pin" length="middle" direction="pas" swaplevel="1" rot="R180"/>
<pin name="VCC" x="5.08" y="2.54" visible="pin" length="middle" direction="pas" swaplevel="1" rot="R180"/>
<pin name="CTS" x="5.08" y="5.08" visible="pin" length="middle" direction="pas" swaplevel="1" rot="R180"/>
<pin name="GND" x="5.08" y="7.62" visible="pin" length="middle" direction="pas" swaplevel="1" rot="R180"/>
</symbol>
<symbol name="CAP-NP">
<wire x1="-1.778" y1="1.524" x2="-1.778" y2="0" width="0.254" layer="94"/>
<wire x1="-1.778" y1="0" x2="-1.778" y2="-1.524" width="0.254" layer="94"/>
<wire x1="-0.762" y1="1.524" x2="-0.762" y2="0" width="0.254" layer="94"/>
<wire x1="-0.762" y1="0" x2="-0.762" y2="-1.524" width="0.254" layer="94"/>
<wire x1="-2.54" y1="0" x2="-1.778" y2="0" width="0.1524" layer="94"/>
<wire x1="-0.762" y1="0" x2="0" y2="0" width="0.1524" layer="94"/>
<text x="-3.81" y="2.54" size="1.778" layer="95">&gt;NAME</text>
<text x="-3.81" y="-3.81" size="1.778" layer="96">&gt;VALUE</text>
<pin name="1" x="-5.08" y="0" visible="off" length="short" direction="pas" swaplevel="1"/>
<pin name="2" x="2.54" y="0" visible="off" length="short" direction="pas" swaplevel="1" rot="R180"/>
</symbol>
<symbol name="DGND">
<wire x1="-1.905" y1="0" x2="1.905" y2="0" width="0.254" layer="94"/>
<text x="-2.54" y="-2.54" size="1.778" layer="96">&gt;VALUE</text>
<pin name="GND" x="0" y="2.54" visible="off" length="short" direction="sup" rot="R270"/>
</symbol>
<symbol name="RESONATOR">
<wire x1="1.016" y1="0" x2="2.54" y2="0" width="0.1524" layer="94"/>
<wire x1="-2.54" y1="0" x2="-1.016" y2="0" width="0.1524" layer="94"/>
<wire x1="-0.381" y1="1.524" x2="-0.381" y2="-1.524" width="0.1524" layer="94"/>
<wire x1="-0.381" y1="-1.524" x2="0.381" y2="-1.524" width="0.1524" layer="94"/>
<wire x1="0.381" y1="-1.524" x2="0.381" y2="1.524" width="0.1524" layer="94"/>
<wire x1="0.381" y1="1.524" x2="-0.381" y2="1.524" width="0.1524" layer="94"/>
<wire x1="1.016" y1="1.778" x2="1.016" y2="0" width="0.1524" layer="94"/>
<wire x1="1.016" y1="0" x2="1.016" y2="-1.778" width="0.1524" layer="94"/>
<wire x1="-1.016" y1="1.778" x2="-1.016" y2="0" width="0.1524" layer="94"/>
<wire x1="-1.016" y1="0" x2="-1.016" y2="-1.778" width="0.1524" layer="94"/>
<wire x1="2.54" y1="0" x2="2.54" y2="-2.032" width="0.1524" layer="94"/>
<wire x1="3.302" y1="-2.032" x2="2.54" y2="-2.032" width="0.1524" layer="94"/>
<wire x1="2.54" y1="-2.032" x2="1.778" y2="-2.032" width="0.1524" layer="94"/>
<wire x1="3.302" y1="-3.048" x2="2.54" y2="-3.048" width="0.1524" layer="94"/>
<wire x1="2.54" y1="-3.048" x2="1.778" y2="-3.048" width="0.1524" layer="94"/>
<wire x1="2.54" y1="-3.048" x2="2.54" y2="-5.08" width="0.1524" layer="94"/>
<wire x1="-1.778" y1="-3.048" x2="-2.54" y2="-3.048" width="0.1524" layer="94"/>
<wire x1="-2.54" y1="-3.048" x2="-3.302" y2="-3.048" width="0.1524" layer="94"/>
<wire x1="-2.54" y1="-3.048" x2="-2.54" y2="-5.08" width="0.1524" layer="94"/>
<wire x1="-1.778" y1="-2.032" x2="-2.54" y2="-2.032" width="0.1524" layer="94"/>
<wire x1="-2.54" y1="-2.032" x2="-3.302" y2="-2.032" width="0.1524" layer="94"/>
<wire x1="-2.54" y1="-2.032" x2="-2.54" y2="0" width="0.1524" layer="94"/>
<wire x1="2.54" y1="-5.08" x2="0" y2="-5.08" width="0.1524" layer="94"/>
<wire x1="0" y1="-5.08" x2="-2.54" y2="-5.08" width="0.1524" layer="94"/>
<wire x1="0" y1="-5.08" x2="0" y2="-7.62" width="0.1524" layer="94"/>
<text x="2.54" y="1.016" size="1.778" layer="95">&gt;NAME</text>
<text x="2.54" y="-7.62" size="1.778" layer="96">&gt;VALUE</text>
<pin name="3" x="2.54" y="0" visible="off" length="point" direction="pas" swaplevel="1" rot="R180"/>
<pin name="1" x="-2.54" y="0" visible="off" length="point" direction="pas" swaplevel="1"/>
<pin name="2" x="0" y="-7.62" visible="off" length="point" direction="pas" swaplevel="1" rot="R90"/>
</symbol>
<symbol name="USB-1">
<wire x1="5.08" y1="8.89" x2="0" y2="8.89" width="0.254" layer="94"/>
<wire x1="0" y1="8.89" x2="0" y2="-1.27" width="0.254" layer="94"/>
<wire x1="0" y1="-1.27" x2="5.08" y2="-1.27" width="0.254" layer="94"/>
<text x="3.81" y="0" size="2.54" layer="94" rot="R90">USB</text>
<pin name="D+" x="-2.54" y="7.62" visible="pad" length="short"/>
<pin name="D-" x="-2.54" y="5.08" visible="pad" length="short"/>
<pin name="VBUS" x="-2.54" y="2.54" visible="pad" length="short"/>
<pin name="GND" x="-2.54" y="0" visible="pad" length="short"/>
</symbol>
</symbols>
<devicesets>
<deviceset name="RESISTOR" prefix="R" uservalue="yes">
<gates>
<gate name="G$1" symbol="RESISTOR" x="0" y="0"/>
</gates>
<devices>
<device name="1206" package="1206">
<connects>
<connect gate="G$1" pin="1" pad="1"/>
<connect gate="G$1" pin="2" pad="2"/>
</connects>
<technologies>
<technology name=""/>
</technologies>
</device>
<device name="0402" package="0402">
<connects>
<connect gate="G$1" pin="1" pad="1"/>
<connect gate="G$1" pin="2" pad="2"/>
</connects>
<technologies>
<technology name=""/>
</technologies>
</device>
</devices>
</deviceset>
<deviceset name="FTDI_CONNECTOR" prefix="JP" uservalue="yes">
<description>FTDI connector smd</description>
<gates>
<gate name="G$1" symbol="ARDUINO_SERIAL_PROGRAM" x="0" y="-2.54"/>
</gates>
<devices>
<device name="SMD" package="1X06-SMD">
<connects>
<connect gate="G$1" pin="CTS" pad="5"/>
<connect gate="G$1" pin="DTR" pad="1"/>
<connect gate="G$1" pin="GND" pad="6"/>
<connect gate="G$1" pin="RXI" pad="2"/>
<connect gate="G$1" pin="TXO" pad="3"/>
<connect gate="G$1" pin="VCC" pad="4"/>
</connects>
<technologies>
<technology name=""/>
</technologies>
</device>
</devices>
</deviceset>
<deviceset name="UNPOLARIZED_CAPACITOR" prefix="C" uservalue="yes">
<description>unpolarized_capacitor</description>
<gates>
<gate name="1" symbol="CAP-NP" x="1.27" y="0"/>
</gates>
<devices>
<device name="1206" package="1206">
<connects>
<connect gate="1" pin="1" pad="1"/>
<connect gate="1" pin="2" pad="2"/>
</connects>
<technologies>
<technology name=""/>
</technologies>
</device>
</devices>
</deviceset>
<deviceset name="GND" prefix="GND">
<description>&lt;b&gt;SUPPLY SYMBOL&lt;/b&gt;</description>
<gates>
<gate name="1" symbol="DGND" x="0" y="0"/>
</gates>
<devices>
<device name="">
<technologies>
<technology name=""/>
</technologies>
</device>
</devices>
</deviceset>
<deviceset name="RESONATOR" prefix="Y" uservalue="yes">
<description>&lt;b&gt;Resonator&lt;/b&gt;&lt;br&gt;
Small SMD resonator.&lt;br&gt;
Used, eg, on the Arduino Pro/ Pro Mini boards.&lt;br&gt;
8MHz- XTAL-08895&lt;br&gt;
16MHz- XTAL-08900</description>
<gates>
<gate name="G$1" symbol="RESONATOR" x="0" y="0"/>
</gates>
<devices>
<device name="8MHZ" package="RESONATOR-SMD">
<connects>
<connect gate="G$1" pin="1" pad="1"/>
<connect gate="G$1" pin="2" pad="2"/>
<connect gate="G$1" pin="3" pad="3"/>
</connects>
<technologies>
<technology name="">
<attribute name="PROD_ID" value="XTAL-08895"/>
<attribute name="VALUE" value="8MHZ" constant="no"/>
</technology>
</technologies>
</device>
<device name="PTH" package="RESONATOR-PTH">
<connects>
<connect gate="G$1" pin="1" pad="1"/>
<connect gate="G$1" pin="2" pad="2"/>
<connect gate="G$1" pin="3" pad="3"/>
</connects>
<technologies>
<technology name=""/>
</technologies>
</device>
<device name="16MHZ" package="RESONATOR-SMD">
<connects>
<connect gate="G$1" pin="1" pad="1"/>
<connect gate="G$1" pin="2" pad="2"/>
<connect gate="G$1" pin="3" pad="3"/>
</connects>
<technologies>
<technology name="">
<attribute name="PROD_ID" value="XTAL-08900"/>
<attribute name="VALUE" value="16MHz"/>
</technology>
</technologies>
</device>
</devices>
</deviceset>
<deviceset name="USB" prefix="JP">
<description>&lt;h3&gt; USB Connector &lt;/h3&gt;

Connector for USB-microB (orAB), USB-mini, and USB-PCB. For USB-micro use Digikey Part# 609-4052-1-ND (typeB) or 609-4052-1-ND (typeAB).</description>
<gates>
<gate name="G$1" symbol="USB-1" x="0" y="0"/>
</gates>
<devices>
<device name="-B-S" package="USB-B-SMT">
<connects>
<connect gate="G$1" pin="D+" pad="D+"/>
<connect gate="G$1" pin="D-" pad="D-"/>
<connect gate="G$1" pin="GND" pad="GND"/>
<connect gate="G$1" pin="VBUS" pad="VUSB"/>
</connects>
<technologies>
<technology name=""/>
</technologies>
</device>
<device name="OLD" package="USB-MINIB-OLD">
<connects>
<connect gate="G$1" pin="D+" pad="D+"/>
<connect gate="G$1" pin="D-" pad="D-"/>
<connect gate="G$1" pin="GND" pad="GND"/>
<connect gate="G$1" pin="VBUS" pad="VBUS"/>
</connects>
<technologies>
<technology name=""/>
</technologies>
</device>
<device name="-JST-2MM-SMT" package="S4B-PH">
<connects>
<connect gate="G$1" pin="D+" pad="2"/>
<connect gate="G$1" pin="D-" pad="3"/>
<connect gate="G$1" pin="GND" pad="1"/>
<connect gate="G$1" pin="VBUS" pad="4"/>
</connects>
<technologies>
<technology name=""/>
</technologies>
</device>
<device name="SMD" package="USB-MINIB">
<connects>
<connect gate="G$1" pin="D+" pad="D+"/>
<connect gate="G$1" pin="D-" pad="D-"/>
<connect gate="G$1" pin="GND" pad="GND"/>
<connect gate="G$1" pin="VBUS" pad="VBUS"/>
</connects>
<technologies>
<technology name="">
<attribute name="PROD_ID" value="CONN-08193" constant="no"/>
</technology>
</technologies>
</device>
<device name="PCB" package="USB_PCB">
<connects>
<connect gate="G$1" pin="D+" pad="D+"/>
<connect gate="G$1" pin="D-" pad="D-"/>
<connect gate="G$1" pin="GND" pad="GND"/>
<connect gate="G$1" pin="VBUS" pad="5V"/>
</connects>
<technologies>
<technology name=""/>
</technologies>
</device>
<device name="-SMD-NS" package="USB-MINIB-NOSTOP">
<connects>
<connect gate="G$1" pin="D+" pad="D+"/>
<connect gate="G$1" pin="D-" pad="D-"/>
<connect gate="G$1" pin="GND" pad="GND"/>
<connect gate="G$1" pin="VBUS" pad="VBUS"/>
</connects>
<technologies>
<technology name=""/>
</technologies>
</device>
<device name="-MICROB" package="USB-MICROB">
<connects>
<connect gate="G$1" pin="D+" pad="D+"/>
<connect gate="G$1" pin="D-" pad="D-"/>
<connect gate="G$1" pin="GND" pad="GND MT1 MT2"/>
<connect gate="G$1" pin="VBUS" pad="VBUS"/>
</connects>
<technologies>
<technology name="">
<attribute name="PROD_ID" value="CONN-09505"/>
</technology>
</technologies>
</device>
</devices>
</deviceset>
</devicesets>
</library>
<library name="FAB_Hello">
<packages>
</packages>
<symbols>
<symbol name="VCC">
<wire x1="1.27" y1="-1.905" x2="0" y2="0" width="0.254" layer="94"/>
<wire x1="0" y1="0" x2="-1.27" y2="-1.905" width="0.254" layer="94"/>
<text x="-2.54" y="-2.54" size="1.778" layer="96" rot="R90">&gt;VALUE</text>
<pin name="VCC" x="0" y="-2.54" visible="off" length="short" direction="sup" rot="R90"/>
</symbol>
<symbol name="GND-1">
<wire x1="-1.905" y1="0" x2="1.905" y2="0" width="0.254" layer="94"/>
<text x="-2.54" y="-2.54" size="1.778" layer="96">&gt;VALUE</text>
<pin name="GND" x="0" y="2.54" visible="off" length="short" direction="sup" rot="R270"/>
</symbol>
</symbols>
<devicesets>
<deviceset name="VCC" prefix="P+">
<description>&lt;b&gt;SUPPLY SYMBOL&lt;/b&gt;</description>
<gates>
<gate name="VCC" symbol="VCC" x="0" y="0"/>
</gates>
<devices>
<device name="">
<technologies>
<technology name=""/>
</technologies>
</device>
</devices>
</deviceset>
<deviceset name="GND" prefix="GND">
<description>&lt;b&gt;SUPPLY SYMBOL&lt;/b&gt;</description>
<gates>
<gate name="1" symbol="GND-1" x="0" y="0"/>
</gates>
<devices>
<device name="">
<technologies>
<technology name=""/>
</technologies>
</device>
</devices>
</deviceset>
</devicesets>
</library>
<library name="adafruit">
<packages>
<package name="TQFP32-08">
<description>&lt;B&gt;Thin Plasic Quad Flat Package&lt;/B&gt; Grid 0.8 mm</description>
<wire x1="3.505" y1="3.505" x2="3.505" y2="-3.505" width="0.1524" layer="21"/>
<wire x1="3.505" y1="-3.505" x2="-3.505" y2="-3.505" width="0.1524" layer="21"/>
<wire x1="-3.505" y1="-3.505" x2="-3.505" y2="3.15" width="0.1524" layer="21"/>
<wire x1="-3.15" y1="3.505" x2="3.505" y2="3.505" width="0.1524" layer="21"/>
<wire x1="-3.15" y1="3.505" x2="-3.505" y2="3.15" width="0.1524" layer="21"/>
<circle x="-2.7432" y="2.7432" radius="0.3592" width="0.1524" layer="21"/>
<smd name="1" x="-4.2926" y="2.8" dx="1.27" dy="0.3556" layer="1"/>
<smd name="2" x="-4.2926" y="2" dx="1.27" dy="0.3556" layer="1"/>
<smd name="3" x="-4.2926" y="1.2" dx="1.27" dy="0.3556" layer="1"/>
<smd name="4" x="-4.2926" y="0.4" dx="1.27" dy="0.3556" layer="1"/>
<smd name="5" x="-4.2926" y="-0.4" dx="1.27" dy="0.3556" layer="1"/>
<smd name="6" x="-4.2926" y="-1.2" dx="1.27" dy="0.3556" layer="1"/>
<smd name="7" x="-4.2926" y="-2" dx="1.27" dy="0.3556" layer="1"/>
<smd name="8" x="-4.2926" y="-2.8" dx="1.27" dy="0.3556" layer="1"/>
<smd name="9" x="-2.8" y="-4.2926" dx="0.3556" dy="1.27" layer="1"/>
<smd name="10" x="-2" y="-4.2926" dx="0.3556" dy="1.27" layer="1"/>
<smd name="11" x="-1.2" y="-4.2926" dx="0.3556" dy="1.27" layer="1"/>
<smd name="12" x="-0.4" y="-4.2926" dx="0.3556" dy="1.27" layer="1"/>
<smd name="13" x="0.4" y="-4.2926" dx="0.3556" dy="1.27" layer="1"/>
<smd name="14" x="1.2" y="-4.2926" dx="0.3556" dy="1.27" layer="1"/>
<smd name="15" x="2" y="-4.2926" dx="0.3556" dy="1.27" layer="1"/>
<smd name="16" x="2.8" y="-4.2926" dx="0.3556" dy="1.27" layer="1"/>
<smd name="17" x="4.2926" y="-2.8" dx="1.27" dy="0.3556" layer="1"/>
<smd name="18" x="4.2926" y="-2" dx="1.27" dy="0.3556" layer="1"/>
<smd name="19" x="4.2926" y="-1.2" dx="1.27" dy="0.3556" layer="1"/>
<smd name="20" x="4.2926" y="-0.4" dx="1.27" dy="0.3556" layer="1"/>
<smd name="21" x="4.2926" y="0.4" dx="1.27" dy="0.3556" layer="1"/>
<smd name="22" x="4.2926" y="1.2" dx="1.27" dy="0.3556" layer="1"/>
<smd name="23" x="4.2926" y="2" dx="1.27" dy="0.3556" layer="1"/>
<smd name="24" x="4.2926" y="2.8" dx="1.27" dy="0.3556" layer="1"/>
<smd name="25" x="2.8" y="4.2926" dx="0.3556" dy="1.27" layer="1"/>
<smd name="26" x="2" y="4.2926" dx="0.3556" dy="1.27" layer="1"/>
<smd name="27" x="1.2" y="4.2926" dx="0.3556" dy="1.27" layer="1"/>
<smd name="28" x="0.4" y="4.2926" dx="0.3556" dy="1.27" layer="1"/>
<smd name="29" x="-0.4" y="4.2926" dx="0.3556" dy="1.27" layer="1"/>
<smd name="30" x="-1.2" y="4.2926" dx="0.3556" dy="1.27" layer="1"/>
<smd name="31" x="-2" y="4.2926" dx="0.3556" dy="1.27" layer="1"/>
<smd name="32" x="-2.8" y="4.2926" dx="0.3556" dy="1.27" layer="1"/>
<text x="-2.7686" y="5.08" size="0.8128" layer="25">&gt;NAME</text>
<text x="-3.0226" y="-1.27" size="0.8128" layer="27">&gt;VALUE</text>
<rectangle x1="-4.5466" y1="2.5714" x2="-3.556" y2="3.0286" layer="51"/>
<rectangle x1="-4.5466" y1="1.7714" x2="-3.556" y2="2.2286" layer="51"/>
<rectangle x1="-4.5466" y1="0.9714" x2="-3.556" y2="1.4286" layer="51"/>
<rectangle x1="-4.5466" y1="0.1714" x2="-3.556" y2="0.6286" layer="51"/>
<rectangle x1="-4.5466" y1="-0.6286" x2="-3.556" y2="-0.1714" layer="51"/>
<rectangle x1="-4.5466" y1="-1.4286" x2="-3.556" y2="-0.9714" layer="51"/>
<rectangle x1="-4.5466" y1="-2.2286" x2="-3.556" y2="-1.7714" layer="51"/>
<rectangle x1="-4.5466" y1="-3.0286" x2="-3.556" y2="-2.5714" layer="51"/>
<rectangle x1="-3.0286" y1="-4.5466" x2="-2.5714" y2="-3.556" layer="51"/>
<rectangle x1="-2.2286" y1="-4.5466" x2="-1.7714" y2="-3.556" layer="51"/>
<rectangle x1="-1.4286" y1="-4.5466" x2="-0.9714" y2="-3.556" layer="51"/>
<rectangle x1="-0.6286" y1="-4.5466" x2="-0.1714" y2="-3.556" layer="51"/>
<rectangle x1="0.1714" y1="-4.5466" x2="0.6286" y2="-3.556" layer="51"/>
<rectangle x1="0.9714" y1="-4.5466" x2="1.4286" y2="-3.556" layer="51"/>
<rectangle x1="1.7714" y1="-4.5466" x2="2.2286" y2="-3.556" layer="51"/>
<rectangle x1="2.5714" y1="-4.5466" x2="3.0286" y2="-3.556" layer="51"/>
<rectangle x1="3.556" y1="-3.0286" x2="4.5466" y2="-2.5714" layer="51"/>
<rectangle x1="3.556" y1="-2.2286" x2="4.5466" y2="-1.7714" layer="51"/>
<rectangle x1="3.556" y1="-1.4286" x2="4.5466" y2="-0.9714" layer="51"/>
<rectangle x1="3.556" y1="-0.6286" x2="4.5466" y2="-0.1714" layer="51"/>
<rectangle x1="3.556" y1="0.1714" x2="4.5466" y2="0.6286" layer="51"/>
<rectangle x1="3.556" y1="0.9714" x2="4.5466" y2="1.4286" layer="51"/>
<rectangle x1="3.556" y1="1.7714" x2="4.5466" y2="2.2286" layer="51"/>
<rectangle x1="3.556" y1="2.5714" x2="4.5466" y2="3.0286" layer="51"/>
<rectangle x1="2.5714" y1="3.556" x2="3.0286" y2="4.5466" layer="51"/>
<rectangle x1="1.7714" y1="3.556" x2="2.2286" y2="4.5466" layer="51"/>
<rectangle x1="0.9714" y1="3.556" x2="1.4286" y2="4.5466" layer="51"/>
<rectangle x1="0.1714" y1="3.556" x2="0.6286" y2="4.5466" layer="51"/>
<rectangle x1="-0.6286" y1="3.556" x2="-0.1714" y2="4.5466" layer="51"/>
<rectangle x1="-1.4286" y1="3.556" x2="-0.9714" y2="4.5466" layer="51"/>
<rectangle x1="-2.2286" y1="3.556" x2="-1.7714" y2="4.5466" layer="51"/>
<rectangle x1="-3.0286" y1="3.556" x2="-2.5714" y2="4.5466" layer="51"/>
</package>
</packages>
<symbols>
<symbol name="ATMEGA32U2">
<wire x1="-17.78" y1="30.48" x2="30.48" y2="30.48" width="0.254" layer="94"/>
<wire x1="30.48" y1="30.48" x2="30.48" y2="-33.02" width="0.254" layer="94"/>
<wire x1="30.48" y1="-33.02" x2="-17.78" y2="-33.02" width="0.254" layer="94"/>
<wire x1="-17.78" y1="-33.02" x2="-17.78" y2="30.48" width="0.254" layer="94"/>
<text x="-17.78" y="-38.1" size="1.778" layer="95">&gt;NAME</text>
<text x="-5.08" y="33.02" size="1.778" layer="96">&gt;VALUE</text>
<pin name="PC2(AIN2/PCIN11)" x="35.56" y="-20.32" length="middle" rot="R180"/>
<pin name="XTAL2/PC0" x="-22.86" y="-10.16" length="middle"/>
<pin name="XTAL1" x="-22.86" y="-2.54" length="middle"/>
<pin name="GND" x="-22.86" y="-25.4" length="middle"/>
<pin name="VCC" x="-22.86" y="27.94" length="middle"/>
<pin name="UVCC" x="-22.86" y="25.4" length="middle"/>
<pin name="UGND" x="-22.86" y="-22.86" length="middle"/>
<pin name="D-" x="-22.86" y="15.24" length="middle"/>
<pin name="AVCC" x="-22.86" y="22.86" length="middle"/>
<pin name="PB3(PDO/MISO/PCINT3)" x="35.56" y="-5.08" length="middle" rot="R180"/>
<pin name="PB2(PDI/MOSI/PCINT2)" x="35.56" y="-2.54" length="middle" rot="R180"/>
<pin name="PB1(SCK/PCINT1)" x="35.56" y="0" length="middle" rot="R180"/>
<pin name="PB0(SS/PCINT0)" x="35.56" y="2.54" length="middle" rot="R180"/>
<pin name="PD7(INT7/HWB/AIN6/T0)" x="35.56" y="10.16" length="middle" rot="R180"/>
<pin name="PD6(INT6/AIN5/RTS)" x="35.56" y="12.7" length="middle" rot="R180"/>
<pin name="PD5(XCK/AIN4/PCINT12)" x="35.56" y="15.24" length="middle" rot="R180"/>
<pin name="PD4(INT5/AIN3)" x="35.56" y="17.78" length="middle" rot="R180"/>
<pin name="PD3(INT3/TXD1)" x="35.56" y="20.32" length="middle" rot="R180"/>
<pin name="PD2(INT2/AIN1/RXD1)" x="35.56" y="22.86" length="middle" rot="R180"/>
<pin name="PD1(INT1/AIN0)" x="35.56" y="25.4" length="middle" rot="R180"/>
<pin name="PD0(INT0/OC0B)" x="35.56" y="27.94" length="middle" rot="R180"/>
<pin name="PC7(ICP1/INT4/CLKO)" x="35.56" y="-30.48" length="middle" rot="R180"/>
<pin name="PC6(OC1A/PCINT8)" x="35.56" y="-27.94" length="middle" rot="R180"/>
<pin name="PC5(OC1B/PCINT9)" x="35.56" y="-25.4" length="middle" rot="R180"/>
<pin name="PC4(PCINT10)" x="35.56" y="-22.86" length="middle" rot="R180"/>
<pin name="PB4(T1/PCINT4)" x="35.56" y="-7.62" length="middle" rot="R180"/>
<pin name="PB6(PCINT6)" x="35.56" y="-12.7" length="middle" rot="R180"/>
<pin name="PB5(PCINT5)" x="35.56" y="-10.16" length="middle" rot="R180"/>
<pin name="PB7(OC0A/OC1C/PCINT7)" x="35.56" y="-15.24" length="middle" rot="R180"/>
<pin name="/RESET(PC1)" x="-22.86" y="-17.78" length="middle" function="dot"/>
<pin name="D+" x="-22.86" y="12.7" length="middle"/>
<pin name="UCAP" x="-22.86" y="7.62" length="middle"/>
</symbol>
</symbols>
<devicesets>
<deviceset name="ATMEGA32U2" prefix="IC">
<description>&lt;B&gt;ATmega32u2&lt;/b&gt;
&lt;p&gt;
&lt;ul&gt;
&lt;li&gt;Pin compatible with the atmega8u2, atmega16u2 and atmega32u2&lt;/li&gt;
&lt;li&gt;8, 16 or 32 K flash, 1K RAM, 512b EEPROM&lt;/li&gt;
&lt;li&gt;8 bit and 16 bit timer (5 PWM total)&lt;/li&gt;
&lt;li&gt;UART, SPI (no I2C!)&lt;/li&gt;
&lt;li&gt;USB with 4 endpoints, LUFA compatible&lt;/li&gt;
&lt;li&gt;22 I/O lines, analog comparator (no ADC!)&lt;/li&gt;
&lt;li&gt;Comes with DFU bootloader burned in!&lt;/li&gt;
&lt;/ul&gt;</description>
<gates>
<gate name="G$1" symbol="ATMEGA32U2" x="-7.62" y="0"/>
</gates>
<devices>
<device name="-TQFP" package="TQFP32-08">
<connects>
<connect gate="G$1" pin="/RESET(PC1)" pad="24"/>
<connect gate="G$1" pin="AVCC" pad="32"/>
<connect gate="G$1" pin="D+" pad="29"/>
<connect gate="G$1" pin="D-" pad="30"/>
<connect gate="G$1" pin="GND" pad="3"/>
<connect gate="G$1" pin="PB0(SS/PCINT0)" pad="14"/>
<connect gate="G$1" pin="PB1(SCK/PCINT1)" pad="15"/>
<connect gate="G$1" pin="PB2(PDI/MOSI/PCINT2)" pad="16"/>
<connect gate="G$1" pin="PB3(PDO/MISO/PCINT3)" pad="17"/>
<connect gate="G$1" pin="PB4(T1/PCINT4)" pad="18"/>
<connect gate="G$1" pin="PB5(PCINT5)" pad="19"/>
<connect gate="G$1" pin="PB6(PCINT6)" pad="20"/>
<connect gate="G$1" pin="PB7(OC0A/OC1C/PCINT7)" pad="21"/>
<connect gate="G$1" pin="PC2(AIN2/PCIN11)" pad="5"/>
<connect gate="G$1" pin="PC4(PCINT10)" pad="26"/>
<connect gate="G$1" pin="PC5(OC1B/PCINT9)" pad="25"/>
<connect gate="G$1" pin="PC6(OC1A/PCINT8)" pad="23"/>
<connect gate="G$1" pin="PC7(ICP1/INT4/CLKO)" pad="22"/>
<connect gate="G$1" pin="PD0(INT0/OC0B)" pad="6"/>
<connect gate="G$1" pin="PD1(INT1/AIN0)" pad="7"/>
<connect gate="G$1" pin="PD2(INT2/AIN1/RXD1)" pad="8"/>
<connect gate="G$1" pin="PD3(INT3/TXD1)" pad="9"/>
<connect gate="G$1" pin="PD4(INT5/AIN3)" pad="10"/>
<connect gate="G$1" pin="PD5(XCK/AIN4/PCINT12)" pad="11"/>
<connect gate="G$1" pin="PD6(INT6/AIN5/RTS)" pad="12"/>
<connect gate="G$1" pin="PD7(INT7/HWB/AIN6/T0)" pad="13"/>
<connect gate="G$1" pin="UCAP" pad="27"/>
<connect gate="G$1" pin="UGND" pad="28"/>
<connect gate="G$1" pin="UVCC" pad="31"/>
<connect gate="G$1" pin="VCC" pad="4"/>
<connect gate="G$1" pin="XTAL1" pad="1"/>
<connect gate="G$1" pin="XTAL2/PC0" pad="2"/>
</connects>
<technologies>
<technology name=""/>
</technologies>
</device>
</devices>
</deviceset>
</devicesets>
</library>
</libraries>
<attributes>
</attributes>
<variantdefs>
</variantdefs>
<classes>
<class number="0" name="default" width="0" drill="0">
</class>
</classes>
<parts>
<part name="P+1" library="FAB_Hello" deviceset="VCC" device=""/>
<part name="GND1" library="FAB_Hello" deviceset="GND" device=""/>
<part name="GND2" library="FAB_Hello" deviceset="GND" device=""/>
<part name="R1" library="fabPatil" deviceset="RESISTOR" device="1206" value="22"/>
<part name="R2" library="fabPatil" deviceset="RESISTOR" device="1206" value="22"/>
<part name="P+2" library="FAB_Hello" deviceset="VCC" device=""/>
<part name="JP1" library="fabPatil" deviceset="FTDI_CONNECTOR" device="SMD" value="FTDI"/>
<part name="C1" library="fabPatil" deviceset="UNPOLARIZED_CAPACITOR" device="1206" value="0.1uF"/>
<part name="R5" library="fabPatil" deviceset="RESISTOR" device="1206" value="470"/>
<part name="R6" library="fabPatil" deviceset="RESISTOR" device="1206" value="470"/>
<part name="P+3" library="FAB_Hello" deviceset="VCC" device=""/>
<part name="GND5" library="fabPatil" deviceset="GND" device=""/>
<part name="C2" library="fabPatil" deviceset="UNPOLARIZED_CAPACITOR" device="1206" value="1uF"/>
<part name="IC1" library="adafruit" deviceset="ATMEGA32U2" device="-TQFP" value="ATMEGA16U2"/>
<part name="P+4" library="FAB_Hello" deviceset="VCC" device=""/>
<part name="GND4" library="fabPatil" deviceset="GND" device=""/>
<part name="GND8" library="fabPatil" deviceset="GND" device=""/>
<part name="R3" library="fabPatil" deviceset="RESISTOR" device="1206" value="10K"/>
<part name="P+6" library="FAB_Hello" deviceset="VCC" device=""/>
<part name="R7" library="fabPatil" deviceset="RESISTOR" device="1206" value="0"/>
<part name="GND10" library="fabPatil" deviceset="GND" device=""/>
<part name="Y1" library="fabPatil" deviceset="RESONATOR" device="16MHZ" value="16MHz"/>
<part name="GND3" library="fabPatil" deviceset="GND" device=""/>
<part name="JP2" library="fabPatil" deviceset="USB" device="-MICROB"/>
<part name="C3" library="fabPatil" deviceset="UNPOLARIZED_CAPACITOR" device="1206"/>
<part name="GND6" library="fabPatil" deviceset="GND" device=""/>
</parts>
<sheets>
<sheet>
<plain>
</plain>
<instances>
<instance part="P+1" gate="VCC" x="-22.86" y="33.02" rot="R90"/>
<instance part="GND1" gate="1" x="-2.54" y="33.02" rot="R90"/>
<instance part="GND2" gate="1" x="-76.2" y="15.24" rot="R270"/>
<instance part="R1" gate="G$1" x="-60.96" y="2.54"/>
<instance part="R2" gate="G$1" x="-53.34" y="0"/>
<instance part="P+2" gate="VCC" x="-71.12" y="20.32"/>
<instance part="JP1" gate="G$1" x="50.8" y="7.62" rot="R180"/>
<instance part="C1" gate="1" x="-15.24" y="33.02" rot="R180"/>
<instance part="R5" gate="G$1" x="43.18" y="7.62"/>
<instance part="R6" gate="G$1" x="35.56" y="10.16"/>
<instance part="P+3" gate="VCC" x="68.58" y="10.16"/>
<instance part="GND5" gate="1" x="68.58" y="-7.62"/>
<instance part="C2" gate="1" x="-43.18" y="-5.08" rot="R180"/>
<instance part="IC1" gate="G$1" x="-12.7" y="-12.7"/>
<instance part="P+4" gate="VCC" x="-38.1" y="22.86"/>
<instance part="GND4" gate="1" x="-50.8" y="-10.16"/>
<instance part="GND8" gate="1" x="-38.1" y="-43.18"/>
<instance part="R3" gate="G$1" x="-60.96" y="-22.86" rot="R90"/>
<instance part="P+6" gate="VCC" x="-60.96" y="-12.7"/>
<instance part="R7" gate="G$1" x="-43.18" y="-35.56" rot="R180"/>
<instance part="GND10" gate="1" x="-50.8" y="-43.18"/>
<instance part="Y1" gate="G$1" x="-40.64" y="-17.78" rot="R270"/>
<instance part="GND3" gate="1" x="-50.8" y="-22.86"/>
<instance part="JP2" gate="G$1" x="-83.82" y="7.62" rot="R180"/>
<instance part="C3" gate="1" x="-71.12" y="-30.48"/>
<instance part="GND6" gate="1" x="-81.28" y="-38.1"/>
</instances>
<busses>
</busses>
<nets>
<net name="GND" class="0">
<segment>
<pinref part="GND1" gate="1" pin="GND"/>
<pinref part="C1" gate="1" pin="1"/>
<wire x1="-5.08" y1="33.02" x2="-10.16" y2="33.02" width="0.1524" layer="91"/>
</segment>
<segment>
<wire x1="-73.66" y1="7.62" x2="-73.66" y2="15.24" width="0.1524" layer="91"/>
<pinref part="GND2" gate="1" pin="GND"/>
<wire x1="-81.28" y1="7.62" x2="-73.66" y2="7.62" width="0.1524" layer="91"/>
<pinref part="JP2" gate="G$1" pin="GND"/>
</segment>
<segment>
<pinref part="JP1" gate="G$1" pin="GND"/>
<pinref part="GND5" gate="1" pin="GND"/>
<wire x1="45.72" y1="0" x2="68.58" y2="0" width="0.1524" layer="91"/>
<wire x1="68.58" y1="0" x2="68.58" y2="-5.08" width="0.1524" layer="91"/>
</segment>
<segment>
<pinref part="C2" gate="1" pin="2"/>
<pinref part="GND4" gate="1" pin="GND"/>
<wire x1="-45.72" y1="-5.08" x2="-50.8" y2="-5.08" width="0.1524" layer="91"/>
<wire x1="-50.8" y1="-5.08" x2="-50.8" y2="-7.62" width="0.1524" layer="91"/>
</segment>
<segment>
<pinref part="GND8" gate="1" pin="GND"/>
<pinref part="IC1" gate="G$1" pin="GND"/>
<wire x1="-38.1" y1="-38.1" x2="-38.1" y2="-40.64" width="0.1524" layer="91"/>
<wire x1="-35.56" y1="-38.1" x2="-38.1" y2="-38.1" width="0.1524" layer="91"/>
</segment>
<segment>
<pinref part="R7" gate="G$1" pin="2"/>
<wire x1="-48.26" y1="-35.56" x2="-50.8" y2="-35.56" width="0.1524" layer="91"/>
<pinref part="GND10" gate="1" pin="GND"/>
<wire x1="-50.8" y1="-35.56" x2="-50.8" y2="-40.64" width="0.1524" layer="91"/>
</segment>
<segment>
<pinref part="Y1" gate="G$1" pin="2"/>
<pinref part="GND3" gate="1" pin="GND"/>
<wire x1="-48.26" y1="-17.78" x2="-50.8" y2="-17.78" width="0.1524" layer="91"/>
<wire x1="-50.8" y1="-17.78" x2="-50.8" y2="-20.32" width="0.1524" layer="91"/>
</segment>
<segment>
<pinref part="C3" gate="1" pin="1"/>
<pinref part="GND6" gate="1" pin="GND"/>
<wire x1="-76.2" y1="-30.48" x2="-81.28" y2="-30.48" width="0.1524" layer="91"/>
<wire x1="-81.28" y1="-30.48" x2="-81.28" y2="-35.56" width="0.1524" layer="91"/>
</segment>
</net>
<net name="VCC" class="0">
<segment>
<pinref part="P+2" gate="VCC" pin="VCC"/>
<wire x1="-81.28" y1="5.08" x2="-71.12" y2="5.08" width="0.1524" layer="91"/>
<wire x1="-71.12" y1="5.08" x2="-71.12" y2="17.78" width="0.1524" layer="91"/>
<pinref part="JP2" gate="G$1" pin="VBUS"/>
</segment>
<segment>
<pinref part="JP1" gate="G$1" pin="VCC"/>
<pinref part="P+3" gate="VCC" pin="VCC"/>
<wire x1="45.72" y1="5.08" x2="68.58" y2="5.08" width="0.1524" layer="91"/>
<wire x1="68.58" y1="5.08" x2="68.58" y2="7.62" width="0.1524" layer="91"/>
</segment>
<segment>
<pinref part="P+1" gate="VCC" pin="VCC"/>
<pinref part="C1" gate="1" pin="2"/>
<wire x1="-17.78" y1="33.02" x2="-20.32" y2="33.02" width="0.1524" layer="91"/>
</segment>
<segment>
<pinref part="IC1" gate="G$1" pin="VCC"/>
<pinref part="P+4" gate="VCC" pin="VCC"/>
<wire x1="-35.56" y1="15.24" x2="-38.1" y2="15.24" width="0.1524" layer="91"/>
<wire x1="-38.1" y1="15.24" x2="-38.1" y2="20.32" width="0.1524" layer="91"/>
<pinref part="IC1" gate="G$1" pin="UVCC"/>
<wire x1="-35.56" y1="12.7" x2="-38.1" y2="12.7" width="0.1524" layer="91"/>
<wire x1="-38.1" y1="12.7" x2="-38.1" y2="15.24" width="0.1524" layer="91"/>
<junction x="-38.1" y="15.24"/>
<pinref part="IC1" gate="G$1" pin="AVCC"/>
<wire x1="-35.56" y1="10.16" x2="-38.1" y2="10.16" width="0.1524" layer="91"/>
<wire x1="-38.1" y1="10.16" x2="-38.1" y2="12.7" width="0.1524" layer="91"/>
<junction x="-38.1" y="12.7"/>
</segment>
<segment>
<pinref part="R3" gate="G$1" pin="2"/>
<pinref part="P+6" gate="VCC" pin="VCC"/>
<wire x1="-60.96" y1="-17.78" x2="-60.96" y2="-15.24" width="0.1524" layer="91"/>
</segment>
</net>
<net name="N$2" class="0">
<segment>
<wire x1="-81.28" y1="2.54" x2="-66.04" y2="2.54" width="0.1524" layer="91"/>
<pinref part="R1" gate="G$1" pin="1"/>
<pinref part="JP2" gate="G$1" pin="D-"/>
</segment>
</net>
<net name="N$1" class="0">
<segment>
<wire x1="-81.28" y1="0" x2="-58.42" y2="0" width="0.1524" layer="91"/>
<pinref part="R2" gate="G$1" pin="1"/>
<pinref part="JP2" gate="G$1" pin="D+"/>
</segment>
</net>
<net name="N$7" class="0">
<segment>
<pinref part="R6" gate="G$1" pin="2"/>
<pinref part="JP1" gate="G$1" pin="RXI"/>
<wire x1="40.64" y1="10.16" x2="45.72" y2="10.16" width="0.1524" layer="91"/>
</segment>
</net>
<net name="N$8" class="0">
<segment>
<pinref part="R5" gate="G$1" pin="2"/>
<pinref part="JP1" gate="G$1" pin="TXO"/>
<wire x1="48.26" y1="7.62" x2="45.72" y2="7.62" width="0.1524" layer="91"/>
</segment>
</net>
<net name="RST" class="0">
<segment>
<pinref part="IC1" gate="G$1" pin="/RESET(PC1)"/>
<label x="-40.64" y="-30.48" size="1.778" layer="95"/>
<pinref part="R3" gate="G$1" pin="1"/>
<wire x1="-35.56" y1="-30.48" x2="-60.96" y2="-30.48" width="0.1524" layer="91"/>
<wire x1="-60.96" y1="-30.48" x2="-60.96" y2="-27.94" width="0.1524" layer="91"/>
<pinref part="C3" gate="1" pin="2"/>
<wire x1="-68.58" y1="-30.48" x2="-60.96" y2="-30.48" width="0.1524" layer="91"/>
<junction x="-60.96" y="-30.48"/>
</segment>
</net>
<net name="D-" class="0">
<segment>
<pinref part="R1" gate="G$1" pin="2"/>
<pinref part="IC1" gate="G$1" pin="D-"/>
<wire x1="-55.88" y1="2.54" x2="-35.56" y2="2.54" width="0.1524" layer="91"/>
<label x="-38.1" y="2.54" size="1.778" layer="95"/>
</segment>
</net>
<net name="N$13" class="0">
<segment>
<pinref part="R5" gate="G$1" pin="1"/>
<wire x1="22.86" y1="7.62" x2="38.1" y2="7.62" width="0.1524" layer="91"/>
<pinref part="IC1" gate="G$1" pin="PD3(INT3/TXD1)"/>
</segment>
</net>
<net name="N$12" class="0">
<segment>
<pinref part="R6" gate="G$1" pin="1"/>
<wire x1="30.48" y1="10.16" x2="22.86" y2="10.16" width="0.1524" layer="91"/>
<pinref part="IC1" gate="G$1" pin="PD2(INT2/AIN1/RXD1)"/>
</segment>
</net>
<net name="D+" class="0">
<segment>
<pinref part="R2" gate="G$1" pin="2"/>
<pinref part="IC1" gate="G$1" pin="D+"/>
<wire x1="-48.26" y1="0" x2="-35.56" y2="0" width="0.1524" layer="91"/>
<label x="-38.1" y="0" size="1.778" layer="95"/>
</segment>
</net>
<net name="N$10" class="0">
<segment>
<pinref part="IC1" gate="G$1" pin="UCAP"/>
<pinref part="C2" gate="1" pin="1"/>
<wire x1="-35.56" y1="-5.08" x2="-38.1" y2="-5.08" width="0.1524" layer="91"/>
</segment>
</net>
<net name="N$11" class="0">
<segment>
<pinref part="R7" gate="G$1" pin="1"/>
<pinref part="IC1" gate="G$1" pin="UGND"/>
<wire x1="-38.1" y1="-35.56" x2="-35.56" y2="-35.56" width="0.1524" layer="91"/>
</segment>
</net>
<net name="N$3" class="0">
<segment>
<pinref part="Y1" gate="G$1" pin="1"/>
<pinref part="IC1" gate="G$1" pin="XTAL1"/>
<wire x1="-40.64" y1="-15.24" x2="-35.56" y2="-15.24" width="0.1524" layer="91"/>
</segment>
</net>
<net name="N$9" class="0">
<segment>
<pinref part="Y1" gate="G$1" pin="3"/>
<wire x1="-40.64" y1="-20.32" x2="-40.64" y2="-22.86" width="0.1524" layer="91"/>
<pinref part="IC1" gate="G$1" pin="XTAL2/PC0"/>
<wire x1="-40.64" y1="-22.86" x2="-35.56" y2="-22.86" width="0.1524" layer="91"/>
</segment>
</net>
</nets>
</sheet>
</sheets>
</schematic>
</drawing>
</eagle>
